\relax 
\@writefile{toc}{\contentsline {section}{\numberline {1}Aufgabenstellung und Zielsetzung}{2}}
\@writefile{toc}{\contentsline {section}{\numberline {2}Versuchsaufbau}{3}}
\newlabel{aufbau}{{2}{3}}
\@writefile{toc}{\contentsline {section}{\numberline {3}Modellierung}{4}}
\newlabel{modellierung}{{3}{4}}
\@writefile{toc}{\contentsline {subsection}{\numberline {3.1}Positionsbestimmung der Kugel}{4}}
\@writefile{toc}{\contentsline {subsection}{\numberline {3.2}Servomotor Ansteuerung}{4}}
\@writefile{toc}{\contentsline {subsection}{\numberline {3.3}Regelung der Wippe}{5}}
\@writefile{lof}{\contentsline {figure}{\numberline {1}{\ignorespaces Beispiel der Abbildung des PID-Regler}}{5}}
\newlabel{Abb1}{{1}{5}}
\@writefile{toc}{\contentsline {section}{\numberline {4}Implementierung}{6}}
\@writefile{toc}{\contentsline {subsection}{\numberline {4.1}Pin-Belegung der Komponenten}{6}}
\newlabel{pinbelegung}{{4.1}{6}}
\@writefile{toc}{\contentsline {subsection}{\numberline {4.2}Die Initialisierung}{6}}
\@writefile{lof}{\contentsline {figure}{\numberline {2}{\ignorespaces Quellcode zum Initialisieren der Pins und Tasks}}{6}}
\@writefile{toc}{\contentsline {subsection}{\numberline {4.3}Implementierung der Pulsweitenmodulation}{7}}
\@writefile{lof}{\contentsline {figure}{\numberline {3}{\ignorespaces Quellcode f\"ur das erstellen der PWM}}{7}}
\@writefile{toc}{\contentsline {subsection}{\numberline {4.4}Die Regelungsfunktion}{7}}
\@writefile{lof}{\contentsline {figure}{\numberline {4}{\ignorespaces Quellcode zur Berechnung der Regelung}}{8}}
\@writefile{toc}{\contentsline {subsubsection}{\numberline {4.4.1}Serielle Ausgabe der Position}{8}}
\@writefile{lof}{\contentsline {figure}{\numberline {5}{\ignorespaces Quellcode f\"ur die serielle Ausgabe der Entfernung der Kugel zur Mitte}}{8}}
\@writefile{toc}{\contentsline {section}{\numberline {5}Evaluierung}{9}}
\@writefile{toc}{\contentsline {subsection}{\numberline {5.1}Die Pulsweitenmodulation}{9}}
\newlabel{pwm}{{5.1}{9}}
\@writefile{lof}{\contentsline {figure}{\numberline {6}{\ignorespaces PWM-Darstellung im Oszilloskop}}{9}}
\@writefile{toc}{\contentsline {subsection}{\numberline {5.2}Die Regelung der Wippe}{10}}
\@writefile{lof}{\contentsline {figure}{\numberline {7}{\ignorespaces Geregeltes Servomotor Signal wenn die Kugel links am Anschlag steht.}}{10}}
\@writefile{lof}{\contentsline {figure}{\numberline {8}{\ignorespaces Geregeltes Servomotor Signal wenn die Kugel rechts am Anschlag steht.}}{10}}
\@writefile{toc}{\contentsline {subsection}{\numberline {5.3}Ausgabe der Strecke zur Mitte}{11}}
\@writefile{toc}{\contentsline {subsection}{\numberline {5.4}Die Regelstrecke der Regelungsfunktion}{11}}
\@writefile{lof}{\contentsline {figure}{\numberline {9}{\ignorespaces Geregeltes Servomotor Signal wenn die Kugel rechts am Anschlag steht.}}{11}}
\@writefile{toc}{\contentsline {section}{\numberline {A}Quellcode}{12}}
\bibdata{bibfile}
\bibstyle{alphadin}
